//		아이템 정보		//


*이름		"어프렌티스 로브"
*NAME		"Apprentice Robe"
*코드		"DA208"

///////////////	공통사항		 ////////////

*내구력		38 52
*무게		26
*가격		30000

///////////////	원소		/////////////

*생체		5 14
*불		-5 2
*냉기		5 14
*번개		-5 2
*독		5 14

///////////////	공격성능		/////////////
// 추가요인	최소	최대	

*공격력		
*사정거리		
*공격속도		
*명중력		
*크리티컬		

//////////////	방어성능		/////////////
// 추가요인

*흡수력		1.5 1.999
//*흡수력		3.6 4.099
*방어력		48 70
*블럭율		

//////////////	이동성능		/////////////
// 추가요인

*이동속도		

//////////////	저장공간		/////////////
// 소켓공간할당

*보유공간		

//////////////	특수능력		/////////////
// 추가요인

*생명력재생	
*기력재생
*근력재생
*생명력추가
*기력추가		
*근력추가
*마법기술숙련도	

//////////////	요구특성		/////////////
// 사용제한 요구치

*레벨		35
*힘		
*정신력		90
*재능		46
*민첩성		
*건강		

/////////////	회복약		 ////////////
// 추가요인	최소	최대

*생명력상승
*기력상승		
*근력상승

//////////////	캐릭터특성	/////////////
// 캐릭터별 특화성능

**특화랜덤 Priestess Magician

// Prayer Shaman//

**흡수력	0.5	0.799
**방어력	10	16
**기력재생	0.7	1.199

*연결파일        "name\da208.zhoon"