//		아이템 정보		//


*이름		"케이아스 부츠"
*Name		"Chaos Boots"
*코드		"DB110"

///////////////	공통사항		 ////////////

*내구력		55 95
*무게		17
*가격		41000

///////////////	원소		/////////////

*생체		2 4
*불		2 4
*냉기		1 4
*번개		1 5
*독		1 4

///////////////	공격성능		/////////////
// 추가요인	최소	최대	

*공격력		
*사정거리		
*공격속도		
*명중력		
*크리티컬		

//////////////	방어성능		/////////////
// 추가요인

*흡수력		0.8 1.399
*방어력		38 70
*블럭율		

//////////////	이동성능		/////////////
// 추가요인

*이동속도	2.1 2.499

//////////////	저장공간		/////////////
// 소켓공간할당

*보유공간		

//////////////	특수능력		/////////////
// 추가요인


*생명력재생	
*기력재생
*근력재생
*생명력추가
*기력추가		
*근력추가
*마법기술숙련도		

//////////////	요구특성		/////////////
// 사용제한 요구치

*레벨		50
*힘		60
*정신력		30
*재능		
*민첩성		65
*건강		

/////////////	회복약		 ////////////
// 추가요인	최소	최대

*생명력상승
*기력상승		
*근력상승

//////////////	캐릭터특성	/////////////
// 캐릭터별 특화성능
**특화랜덤 Mechanician Fighter Pikeman Archer Knight Atalanta Priestess Magician
// Rogue Pilgrim Prayer Shaman//

**흡수력	0.3	0.599
**이동속도	0.3	0.699

*연결파일        "name\db110.zhoon"