//		아이템 정보		//


*이름		"스커텀"
*Name		"Scutum"
*코드		"DS107"

///////////////	공통사항		 ////////////

*내구력		55 90
*무게		23
*가격		20000

///////////////	원소		/////////////

*생체		1 4
*불		1 4
*냉기		1 4
*번개		-3 -3
*독		1 4

///////////////	공격성능		/////////////
// 추가요인	최소	최대	

*공격력		
*사정거리		
*공격속도		
*명중력		
*크리티컬		

//////////////	방어성능		/////////////
// 추가요인

*흡수력		1.2 1.899
*방어력		55 70
*블럭율		11 17

//////////////	신발성능		/////////////
// 추가요인

*이동속도		

//////////////	저장공간		/////////////
// 소켓공간할당

*보유공간		

//////////////	특수능력		/////////////
// 추가요인

*생명력재생	
*기력재생
*근력재생
*생명력추가
*기력추가		
*근력추가
*마법기술숙련도

//////////////	요구특성		/////////////
// 사용제한 요구치

*레벨		30
*힘		78
*정신력		
*재능		42
*민첩성		
*건강		

/////////////	회복약		 ////////////
// 추가요인	최소	최대

*생명력상승
*기력상승		
*근력상승	

//////////////	캐릭터특성	/////////////
// 캐릭터별 특화성능

**특화랜덤 Knight Atalanta Mechanician Fighter Pikeman Archer

// Rogue Pilgrim //

**흡수력	0.4 0.799
**블럭율	4
**방어력	8 14

*연결파일        "name\DS107.zhoon"