//		아이템 정보		//


*이름		"핸드 크로스보우"
*Name		"Hand Crossbow"
*코드		"WS103"

///////////////	공통사항		 ////////////

*내구력		23 38
*무게		7
*가격		720

///////////////	원소		/////////////

*생체		
*대자연		
*불		
*냉기		
*번개		
*독		
*물		
*바람		

///////////////	공격성능		/////////////
// 추가요인	최소	최대	

*공격력		3 3	5 7
*사정거리	190
*공격속도	7
*명중력		24 34
*크리티컬	3

//////////////	방어성능		/////////////
// 추가요인

*흡수력		
*방어력		
*블럭율		

//////////////	신발성능		/////////////
// 추가요인

*이동속도		

//////////////	저장공간		/////////////
// 소켓공간할당

*보유공간		

//////////////	특수능력		/////////////
// 추가요인

*생명력재생	
*기력재생	
*근력재생	
*생명력추가	
*기력추가	
*근력추가	
*마법기술숙련도	

//////////////	요구특성		/////////////
// 사용제한 요구치

*레벨		
*힘		
*정신력		
*재능		
*민첩성		32
*건강		

/////////////	회복약		 ////////////
// 추가요인	최소	최대

*생명력상승	
*기력상승	
*근력상승	

//////////////	캐릭터특성	/////////////
// 캐릭터별 특화성능

**특화 Archer
**특화랜덤 Atalanta Mechanician
// Rogue //

**공격력	0	4
**크리티컬	4
**공격속도	1
**사정거리	15

*연결파일	"name\WS103.zhoon"